…
```r
ind_date <- subset(df, !is.na(df[, "steps"])) %>%
        group_by(date) %>%
        summarise(
                #mean.steps = mean(steps, na.rm = T),
                #median.steps = median(steps, na_rm = T),
                sum.steps = sum(steps, na_rm = T)
        )
ind_date
```

```
## # A tibble: 53 x 2
##    date       sum.steps
##    <date>         <int>
##  1 2012-10-02       127
##  2 2012-10-03     11353
##  3 2012-10-04     12117
##  4 2012-10-05     13295
##  5 2012-10-06     15421
##  6 2012-10-07     11016
##  7 2012-10-09     12812
##  8 2012-10-10      9901
##  9 2012-10-11     10305
## 10 2012-10-12     17383
## # ... with 43 more rows
```
…
### Calculate and report the mean and median of the total number of steps taken per day

Below is the calculated total steps per day.



```r
ind_date
```

```
## # A tibble: 53 x 2
##    date       sum.steps
##    <date>         <int>
##  1 2012-10-02       127
##  2 2012-10-03     11353
##  3 2012-10-04     12117
##  4 2012-10-05     13295
##  5 2012-10-06     15421
##  6 2012-10-07     11016
##  7 2012-10-09     12812
##  8 2012-10-10      9901
##  9 2012-10-11     10305
## 10 2012-10-12     17383
## # ... with 43 more rows
```
…
We can see that the median slightly changed and converged to the mean.

## Are there differences in activity patterns between weekdays and weekends?

For this part, we will create a weekend/weekday dummy. Recall that we have previously created a day-of-week variable called wday and wday_label.


```r
df_impute[,c("date", "wday", "wday_label")]
```

```
## # A tibble: 17,568 x 3
##    date        wday wday_label
##    <date>     <dbl> <ord>     
##  1 2012-10-01     2 Monday    
##  2 2012-10-01     2 Monday    
##  3 2012-10-01     2 Monday    
##  4 2012-10-01     2 Monday    
##  5 2012-10-01     2 Monday    
##  6 2012-10-01     2 Monday    
##  7 2012-10-01     2 Monday    
##  8 2012-10-01     2 Monday    
##  9 2012-10-01     2 Monday    
## 10 2012-10-01     2 Monday    
## # ... with 17,558 more rows
```
…
